OS info is 
uname_result(system='Windows', node='DESKTOP-03JO9CT', release='10', version='10.0.19042', machine='AMD64')

Python version is 3.10.1 (tags/v3.10.1:2cd268a, Dec  6 2021, 19:10:37) [MSC v.1929 64 bit (AMD64)] ('64bit', 'WindowsPE')